{
  "$schema": "http://json-schema.org/draft-04/schema#",
  "description": "Schema for validating a partially populated contentItem",
  "type": "object",
  "properties": {
    "id": {
      "type": "integer"
    },
    "authorOrganizationId": {
      "type": "integer"
    },
    "authorId": {
      "type": "integer"
    },
    "channelId": {
      "type": "integer"
    },
    "status": {
      "enum": [
        "DRAFT",
        "PUBLISHED",
        "ARCHIVED"
      ]
    },
    "body": {
      "oneOf": [
        { "$ref": "#/definitions/TrainingVideoContentType" },
        { "$ref": "#/definitions/ImageContentType" },
        { "$ref": "#/definitions/DailyActionContentType" }
      ]
    },
    "tags": {
      "type": "array",
      "items": {
        "type": "string",
        "pattern": "^[a-zA-Z0-9]+$"
      }
    },
    "activitiesOrder": {
      "type": "array",
      "items": {
        "type": "integer"
      }
    },
    "modifiedTimestamp": {
      "type": "string",
      "format": "date-time"
    },
    "createdTimestamp": {
      "type": "string",
      "format": "date-time"
    },
    "publishedTimestamp": {
      "type": "string",
      "format": "date-time"
    }
  },
  "additionalProperties": false,
  "required": [
    "authorOrganizationId",
    "authorId",
    "channelId"
  ],
  "definitions": {
    "Image": {
      "type": "object",
      "properties": {
        "format": {
          "type": "string"
        },
        "width": {
          "type": "number"
        },
        "height": {
          "type": "number"
        },
        "filename": {
          "type": "string"
        }
      },
      "required": [
        "format", "width", "height", "filename"
      ]
    },
    "ImageCollection": {
      "type": "object",
      "properties": {
        "baseKey": {
          "type": "string"
        },
        "baseCDNPath": {
          "type": "string"
        },
        "variations": {
          "type": "object",
          "properties": {
            "tiny": {
              "$ref": "#/definitions/Image"
            },
            "small": {
              "$ref": "#/definitions/Image"
            },
            "medium": {
              "$ref": "#/definitions/Image"
            },
            "large": {
              "$ref": "#/definitions/Image"
            },
            "original": {
              "$ref": "#/definitions/Image"
            }
          },
          "required": [
            "tiny", "small", "medium", "large", "original"
          ]
        }
      },
      "required": [
        "baseCDNPath", "variations"
      ]
    },
    "TrainingVideoContentType": {
      "type": "object",
      "properties": {
        "type": {
          "type": "string",
          "enum": [
            "TrainingVideo"
          ]
        },
        "title": {
          "type": "string"
        },
        "text": {
          "type": "string"
        },
        "video": {
          "type": "object",
          "properties": {
            "videoURI": {
              "type": "string"
            },
            "previewImageURI": {
              "type": "string"
            },
            "transcodeId": {
              "type": "number"
            }
          }
        }
      }
    },
    "ImageContentType": {
      "type": "object",
      "properties": {
        "type": {
          "type": "string",
          "enum": [
            "Image"
          ]
        },
        "title": {
          "type": "string"
        },
        "text": {
          "type": "string"
        },
        "images": {
          "type": "array",
          "items": {
            "$ref": "#/definitions/ImageCollection"
          }
        }
      }
    },
    "DailyActionContentType": {
      "type": "object",
      "properties": {
        "type": {
          "type": "string",
          "enum": [
            "DailyAction"
          ]
        },
        "title": {
          "type": "string"
        },
        "text": {
          "type": "string"
        }
      }
    }
  }
}
